
<svg xmlns="http://www.w3.org/2000/svg" version="1.1" xmlns:xlink="http://www.w3.org/1999/xlink" preserveAspectRatio="none" x="0px" y="0px" width="100px" height="100px" viewBox="0 0 100 100">
<defs>
<g id="Layer0_0_FILL">
<path fill="#FFFFFF" stroke="none" d="
M 88.45 79.45
Q 99 68.9 99 54 99 39.1 88.45 28.55 77.9 18 63 18 48.1 18 37.55 28.55 27 39.1 27 54 27 68.9 37.55 79.45 48.1 90 63 90 77.9 90 88.45 79.45 Z"/>
</g>

<g id="Layer0_1_MEMBER_0_FILL">
<path fill="#3A3838" stroke="none" d="
M 42.95 36.3
L 42.4 37 42.45 37.1
Q 43.6 37.85 43.05 38.6 42.75 39.05 42.25 38.9 41.7 38.8 40.6 37.95 39.55 37.15 39.3 36.65 39.1 36.25 39.4 35.8 39.9 35.2 40.8 35.85
L 40.85 35.9 41.45 35.2 41.35 35.1
Q 39.9 34.05 38.9 35.4 38.25 36.25 38.55 37 38.85 37.75 40.1 38.7 41.35 39.65 42.1 39.75 42.95 39.85 43.6 39 44.65 37.65 43.05 36.35
L 42.95 36.3 Z"/>
</g>

<g id="Layer0_1_MEMBER_1_FILL">
<path fill="#3A3838" stroke="none" d="
M 43.4 33.4
Q 43.8 32.9 44.25 33.45 44.55 33.75 44.25 34.2
L 43.9 34.8
Q 43.65 35.3 43.65 35.55 43.65 35.95 44.1 36.45 45 37.35 45.75 36.55 46.25 36.05 46.1 35.35 46.55 35.8 47.05 35.25
L 47.25 34.9 46.9 34.5 46.8 34.6
Q 46.65 34.75 46.4 34.55
L 44.75 32.75
Q 44 32 43 32.95 41.9 34 42.9 35
L 43.5 34.45
Q 42.9 33.85 43.4 33.4
M 44.9 34.1
L 45.4 34.65
Q 46.05 35.4 45.5 35.9 45.15 36.25 44.7 35.8 44.3 35.4 44.45 35.05 44.85 34.4 44.9 34.1 Z"/>
</g>

<g id="Layer0_1_MEMBER_2_FILL">
<path fill="#3A3838" stroke="none" d="
M 48.35 30.25
Q 47.7 29.25 46.8 29.9 46.15 30.3 46.25 31.05
L 46.2 31.05 45.95 30.65 45.25 31.1 47.7 34.6 48.45 34.15 46.8 31.75
Q 46.3 31.15 46.85 30.7 47.4 30.3 47.8 30.95
L 49.5 33.4 50.2 32.9 48.35 30.25 Z"/>
</g>

<g id="Layer0_1_MEMBER_3_FILL">
<path fill="#3A3838" stroke="none" d="
M 53.1 30.4
L 52 28.2
Q 51.55 27.35 50.3 27.85 48.9 28.55 49.55 29.8
L 50.3 29.45
Q 49.9 28.7 50.55 28.4 51 28.15 51.35 28.75 51.55 29.15 51.15 29.45
L 50.6 29.9
Q 50.2 30.3 50.15 30.6 50.05 30.95 50.3 31.55 50.8 32.65 51.85 32.15 52.45 31.85 52.55 31.1 52.8 31.55 53.45 31.3
L 53.8 31 53.55 30.5 53.4 30.6
Q 53.2 30.7 53.1 30.4
M 51.05 30.35
Q 51.25 30.1 51.75 29.55
L 52.05 30.2
Q 52.55 31.15 51.8 31.45 51.3 31.7 51.05 31.1 50.85 30.65 51.05 30.35 Z"/>
</g>

<g id="Layer0_1_MEMBER_4_FILL">
<path fill="#3A3838" stroke="none" d="
M 56.2 29.75
L 56.35 30.25 57.1 30 55.45 24.55 54.6 24.8 55.15 26.65
Q 54.75 26.1 54.05 26.35 52.85 26.75 53.45 28.85 54.15 31.05 55.45 30.65 56.15 30.4 56.15 29.75
L 56.2 29.75
M 54.3 28.6
Q 53.9 27.1 54.5 26.9 55.2 26.65 55.7 28.25 56.2 29.7 55.45 29.9 54.8 30.15 54.3 28.6 Z"/>
</g>

<g id="Layer0_1_MEMBER_5_FILL">
<path fill="#3A3838" stroke="none" d="
M 57.2 25.65
L 58 29.85 58.8 29.7 58.05 25.45 57.2 25.65
M 56.9 24.2
L 57.05 25.05 57.9 24.9 57.75 24.05 56.9 24.2 Z"/>
</g>

<g id="Layer0_1_MEMBER_6_FILL">
<path fill="#3A3838" stroke="none" d="
M 59.4 26.55
L 60.2 26.5
Q 60.2 25.65 60.8 25.6 61.4 25.6 61.45 26.2 61.5 26.65 61 26.8
L 60.35 27.05
Q 59.35 27.4 59.45 28.45 59.5 29.7 60.65 29.6 61.35 29.55 61.65 28.85
L 61.7 28.85
Q 61.75 29.4 62.45 29.4
L 62.85 29.25 62.8 28.7 62.7 28.7
Q 62.45 28.8 62.45 28.45
L 62.25 25.95
Q 62.2 24.9 60.8 25 59.3 25.15 59.4 26.55
M 60.3 28.3
Q 60.2 27.85 60.6 27.6 60.85 27.45 61.5 27.1
L 61.55 27.85
Q 61.65 28.9 60.85 28.9 60.3 29 60.3 28.3 Z"/>
</g>

<g id="Layer0_1_MEMBER_7_FILL">
<path fill="#3A3838" stroke="none" d="
M 66.4 29.55
L 66.65 26.3
Q 66.7 25.15 65.65 25.05 64.9 24.95 64.5 25.6
L 64.55 25.1 63.7 25 63.4 29.3 64.25 29.4 64.45 26.5
Q 64.5 25.7 65.2 25.7 65.8 25.75 65.75 26.55
L 65.55 29.5 66.4 29.55 Z"/>
</g>

<g id="Layer0_1_MEMBER_8_FILL">
<path fill="#3A3838" stroke="none" d="
M 72.45 28.4
L 71.6 30.9 72.5 31.2 74.3 25.8 73.45 25.5 72.7 27.65 71.1 27.1 71.85 24.95 70.95 24.65 69.15 30.05 70 30.35 70.85 27.85 72.45 28.4 Z"/>
</g>

<g id="Layer0_1_MEMBER_9_FILL">
<path fill="#3A3838" stroke="none" d="
M 77 31.1
Q 78.05 29.15 76.65 28.35 75.25 27.6 74.15 29.6 73.1 31.6 74.5 32.35 75.9 33.1 77 31.1
M 76.35 28.9
Q 77 29.25 76.25 30.7 75.8 31.5 75.55 31.7 75.2 32 74.8 31.8 74.1 31.45 74.95 30 75.7 28.55 76.35 28.9 Z"/>
</g>

<g id="Layer0_1_MEMBER_10_FILL">
<path fill="#3A3838" stroke="none" d="
M 81.75 32.7
Q 82.15 33.05 81.7 33.65
L 79.8 35.95 80.5 36.5 82.55 33.95
Q 83.3 33.05 82.45 32.4 81.95 31.95 81.2 32.2 81.45 31.6 80.85 31.1 80.4 30.65 79.65 30.9
L 79.95 30.5 79.35 30 76.6 33.3 77.3 33.85 79.1 31.6
Q 79.65 31 80.15 31.4 80.55 31.75 80.1 32.35
L 78.2 34.6 78.9 35.15 80.7 32.95
Q 81.2 32.3 81.75 32.7 Z"/>
</g>

<g id="Layer0_1_MEMBER_11_FILL">
<path fill="#3A3838" stroke="none" d="
M 85.75 36.75
Q 85.95 36.15 85.4 35.5 84.4 34.3 82.55 35.75 80.9 37.15 81.9 38.35 82.85 39.5 84.05 38.55
L 83.55 37.9
Q 82.8 38.5 82.35 38 81.85 37.4 82.9 36.6
L 83.1 36.45 84.5 38.15 84.85 37.9
Q 85.6 37.25 85.75 36.75
M 83.55 36.05
L 83.6 36
Q 84.45 35.35 84.9 35.85 85.35 36.35 84.6 37
L 84.45 37.15 83.55 36.05 Z"/>
</g>

<g id="Layer0_2_MEMBER_0_FILL">
<path fill="#3A3838" stroke="none" d="
M 54.5 35.15
L 55.85 40.85 57 40.85 58.45 35.15 57.45 35.15 56.45 39.7 56.4 39.7 55.45 35.15 54.5 35.15 Z"/>
</g>

<g id="Layer0_2_MEMBER_1_FILL">
<path fill="#3A3838" stroke="none" d="
M 58.85 36.55
L 58.85 40.85 59.7 40.85 59.7 36.55 58.85 36.55
M 58.85 35.1
L 58.85 35.95 59.7 35.95 59.7 35.1 58.85 35.1 Z"/>
</g>

<g id="Layer0_2_MEMBER_2_FILL">
<path fill="#3A3838" stroke="none" d="
M 63.6 35.15
L 62.75 35.15 62.75 37.05 62.7 37.05
Q 62.45 36.45 61.75 36.45 60.4 36.45 60.4 38.65 60.4 40.95 61.8 40.95 62.5 40.95 62.75 40.35
L 62.75 40.85 63.6 40.85 63.6 35.15
M 62 37.15
Q 62.45 37.15 62.6 37.55 62.75 37.9 62.75 38.75 62.75 40.3 62.05 40.3 61.3 40.3 61.3 38.7 61.3 37.15 62 37.15 Z"/>
</g>

<g id="Layer0_2_MEMBER_3_FILL">
<path fill="#3A3838" stroke="none" d="
M 67.1 36.95
Q 66.75 36.45 65.9 36.45 64.3 36.45 64.3 38.75 64.3 40.95 65.9 40.95 66.6 40.95 67 40.55 67.4 40.1 67.4 39.4
L 66.55 39.4
Q 66.55 40.4 65.9 40.4 65.15 40.4 65.15 39.05
L 65.15 38.8 67.4 38.8 67.4 38.35
Q 67.4 37.4 67.1 36.95
M 66.55 38
L 66.55 38.25 65.15 38.25 65.15 38.15
Q 65.15 37.05 65.9 37.05 66.55 37.05 66.55 38 Z"/>
</g>

<g id="Layer0_2_MEMBER_4_FILL">
<path fill="#3A3838" stroke="none" d="
M 67.95 38.7
Q 67.95 40.95 69.55 40.95 71.15 40.95 71.15 38.7 71.15 36.45 69.55 36.45 67.95 36.45 67.95 38.7
M 69.55 40.35
Q 68.8 40.35 68.8 38.7 68.8 37.1 69.55 37.1 70.3 37.1 70.3 38.7 70.3 39.6 70.15 39.95 70 40.35 69.55 40.35 Z"/>
</g>

<g id="Layer0_3_MEMBER_0_FILL">
<path fill="#3A3838" stroke="none" d="
M 57.35 79.4
Q 57.75 78 56.35 77.55
L 54.4 77 52.85 82.45 53.75 82.75 54.4 80.35 55.1 80.55
Q 55.85 80.8 55.65 81.65
L 55.35 82.7 55.35 83.25 56.35 83.55
Q 56.2 83.3 56.25 82.95
L 56.55 81.85
Q 56.8 80.8 56 80.5
L 56 80.45
Q 56.95 80.6 57.35 79.4
M 55.85 78.15
Q 56.7 78.4 56.4 79.25 56.15 80.15 55.3 79.9
L 54.6 79.7 55.1 77.9 55.85 78.15 Z"/>
</g>

<g id="Layer0_3_MEMBER_1_FILL">
<path fill="#3A3838" stroke="none" d="
M 59.9 80.85
Q 59.85 81.2 59.3 81.3
L 58.65 81.4
Q 58.1 81.5 57.9 81.7 57.55 81.95 57.45 82.6 57.3 83.8 58.4 83.95 59.05 84.1 59.55 83.5 59.55 84.05 60.2 84.15
L 60.65 84.1 60.7 83.55 60.6 83.55
Q 60.3 83.55 60.4 83.2
L 60.75 80.75
Q 60.9 79.75 59.5 79.55 58.05 79.35 57.8 80.75
L 58.65 80.85
Q 58.75 80.05 59.4 80.1 60 80.25 59.9 80.85
M 59.75 81.75
L 59.7 82.45
Q 59.55 83.5 58.75 83.35 58.2 83.25 58.3 82.65 58.4 82.15 58.75 82 59.55 81.9 59.75 81.75 Z"/>
</g>

<g id="Layer0_3_MEMBER_2_FILL">
<path fill="#3A3838" stroke="none" d="
M 62.05 79.9
L 61.45 79.85 61.4 80.5 62 80.5 61.95 83.2
Q 61.95 84.25 62.8 84.25
L 63.5 84.2 63.55 83.55 63.2 83.55
Q 62.85 83.55 62.85 83.1
L 62.9 80.55 63.6 80.55 63.6 79.9 62.9 79.9 62.9 78.65 62.05 78.65 62.05 79.9 Z"/>
</g>

<g id="Layer0_3_MEMBER_3_FILL">
<path fill="#3A3838" stroke="none" d="
M 64.3 79.85
L 64.6 84.15 65.5 84.1 65.2 79.8 64.3 79.85
M 64.2 78.4
L 64.3 79.25 65.15 79.2 65.1 78.35 64.2 78.4 Z"/>
</g>

<g id="Layer0_3_MEMBER_4_FILL">
<path fill="#3A3838" stroke="none" d="
M 66.95 79.6
L 66.15 79.75 66.95 83.95 67.8 83.8 67.25 80.95
Q 67.1 80.2 67.8 80 68.35 79.95 68.5 80.65
L 69.05 83.6 69.9 83.4 69.3 80.25
Q 69.1 79.1 68.05 79.25 67.25 79.45 67.1 80.1
L 67.05 80.1 66.95 79.6 Z"/>
</g>

<g id="Layer0_3_MEMBER_5_FILL">
<path fill="#3A3838" stroke="none" d="
M 72.8 78
L 72.05 78.25 72.2 78.75
Q 71.9 78.2 71.1 78.45 69.75 78.9 70.55 81 71.2 83.05 72.45 82.65 73.1 82.4 73.2 81.75
L 73.4 82.4
Q 73.7 83.15 73 83.4 72.75 83.5 72.5 83.45 72.3 83.35 72.25 83.15
L 71.45 83.4
Q 71.9 84.4 73.15 84 74.7 83.45 74.15 81.85
L 72.8 78
M 71.55 79.05
Q 72.2 78.8 72.65 80.2 73.2 81.65 72.45 81.9 71.8 82.1 71.3 80.65 70.85 79.3 71.55 79.05 Z"/>
</g>

<g id="Layer0_4_FILL">
<path fill="#FAFF00" stroke="none" d="
M 85.55 50
Q 87.35 47.7 85.75 45.7 83.85 43.35 79.6 43.35
L 46.35 43.35
Q 42.15 43.35 40.25 45.7 38.65 47.65 40.4 50
L 58 74.1
Q 59.65 76.35 62.95 76.35
L 63 76.35
Q 66.2 76.35 67.95 74.1
L 85.55 50 Z"/>
</g>

<g id="Layer0_5_FILL">
<path fill="#3A3838" stroke="none" d="
M 66.1 68.05
L 66.15 67.55 65.2 68.9
Q 64.65 69.65 64.4 69.45
L 64.35 69 65.1 66.05
Q 64.6 66.6 64.15 66.6 63.85 66.6 63.55 65.8
L 63.3 65
Q 62.9 66.6 62.45 66.6 62.15 66.6 61.8 66.35
L 61.5 66.05 62.2 69 62.25 69.15
Q 62.3 69.35 62.15 69.45 61.95 69.65 61.4 68.9
L 60.4 67.55 60.45 68.05
Q 60.5 68.55 60.4 68.65 60.2 68.85 58.75 68.25
L 59.1 68.8
Q 59.4 69.45 59.25 69.75 59.05 70.2 58.2 70
L 59.5 70.95
Q 60.8 71.9 60.85 72.1 60.95 72.45 60.75 72.9
L 62.55 72.45
Q 63.1 72.3 63.1 72.8
L 63.1 74.95 63.5 74.95 63.5 72.8
Q 63.5 72.3 64.05 72.45
L 65.8 72.9
Q 65.65 72.45 65.75 72.1 65.8 71.9 67.1 70.95 67.75 70.45 68.4 70 67.55 70.2 67.35 69.75 67.25 69.45 67.55 68.8
L 67.85 68.25
Q 66.4 68.85 66.2 68.65 66.1 68.55 66.1 68.05 Z"/>
</g>

<g id="Layer0_6_FILL">
<path fill="#3A3838" stroke="none" d="
M 58.7 45.1
L 57.15 45.1
Q 54.5 47.95 51.95 49
L 52.25 49.8
Q 54.35 49.05 55.35 48.35
L 55.35 60.15
Q 55.35 61.3 54.5 61.3
L 52.8 61.3 52.8 62.25 61.35 62.25 61.35 61.35 59.5 61.35
Q 59.15 61.35 58.9 60.9 58.7 60.5 58.7 60
L 58.7 45.1 Z"/>
</g>

<g id="Layer0_7_MEMBER_0_MEMBER_0_FILL">
<path fill="#3A3838" stroke="none" d="
M 69.7 45
L 68.35 45 60.5 56.8 60.5 58 66.4 58 66.4 62.7 69.65 62.7 69.65 57.95 72 57.95 72 56.2 69.7 56.2 69.7 45
M 66.45 49.8
L 66.45 56.1 62.25 56.1 66.45 49.8 Z"/>
</g>

<g id="Layer0_8_MEMBER_0_MEMBER_0_FILL">
<path fill="#3A3838" stroke="none" d="
M 73.6 45.05
L 73.6 45.4
Q 71.8 51 71.5 51.7 71.25 52.4 70.6 52.25
L 70.6 52.7 73.45 52.7 73.45 52.2 72.9 52.2
Q 72.6 52.2 72.45 52.05 72.25 51.85 72.35 51.7
L 72.9 49.9 75.25 49.9 75.75 51.45
Q 76 52.25 75.35 52.25
L 74.75 52.25 74.75 52.7 78.25 52.7 78.25 52.25
Q 77.75 52.25 77.3 51.4
L 75.05 45.05 73.6 45.05
M 75 49.25
L 73.05 49.25 74 46.5 75 49.25 Z"/>
</g>

<path id="Layer0_0_1_STROKES" stroke="#3A3838" stroke-width="1" stroke-linejoin="miter" stroke-linecap="butt" stroke-miterlimit="4" fill="none" d="
M 99 54
Q 99 68.9 88.45 79.45 77.9 90 63 90 48.1 90 37.55 79.45 27 68.9 27 54 27 39.1 37.55 28.55 48.1 18 63 18 77.9 18 88.45 28.55 99 39.1 99 54 Z"/>
</defs>

<g transform="matrix( 1, 0, 0, 1, -12.5,-2) ">
<use xlink:href="#Layer0_0_FILL"/>

<use xlink:href="#Layer0_0_1_STROKES"/>
</g>

<g transform="matrix( 1, 0, 0, 1, -12.5,-2) ">
<use xlink:href="#Layer0_1_MEMBER_0_FILL"/>
</g>

<g transform="matrix( 1, 0, 0, 1, -12.5,-2) ">
<use xlink:href="#Layer0_1_MEMBER_1_FILL"/>
</g>

<g transform="matrix( 1, 0, 0, 1, -12.5,-2) ">
<use xlink:href="#Layer0_1_MEMBER_2_FILL"/>
</g>

<g transform="matrix( 1, 0, 0, 1, -12.5,-2) ">
<use xlink:href="#Layer0_1_MEMBER_3_FILL"/>
</g>

<g transform="matrix( 1, 0, 0, 1, -12.5,-2) ">
<use xlink:href="#Layer0_1_MEMBER_4_FILL"/>
</g>

<g transform="matrix( 1, 0, 0, 1, -12.5,-2) ">
<use xlink:href="#Layer0_1_MEMBER_5_FILL"/>
</g>

<g transform="matrix( 1, 0, 0, 1, -12.5,-2) ">
<use xlink:href="#Layer0_1_MEMBER_6_FILL"/>
</g>

<g transform="matrix( 1, 0, 0, 1, -12.5,-2) ">
<use xlink:href="#Layer0_1_MEMBER_7_FILL"/>
</g>

<g transform="matrix( 1, 0, 0, 1, -12.5,-2) ">
<use xlink:href="#Layer0_1_MEMBER_8_FILL"/>
</g>

<g transform="matrix( 1, 0, 0, 1, -12.5,-2) ">
<use xlink:href="#Layer0_1_MEMBER_9_FILL"/>
</g>

<g transform="matrix( 1, 0, 0, 1, -12.5,-2) ">
<use xlink:href="#Layer0_1_MEMBER_10_FILL"/>
</g>

<g transform="matrix( 1, 0, 0, 1, -12.5,-2) ">
<use xlink:href="#Layer0_1_MEMBER_11_FILL"/>
</g>

<g transform="matrix( 1, 0, 0, 1, -12.5,-2) ">
<use xlink:href="#Layer0_2_MEMBER_0_FILL"/>
</g>

<g transform="matrix( 1, 0, 0, 1, -12.5,-2) ">
<use xlink:href="#Layer0_2_MEMBER_1_FILL"/>
</g>

<g transform="matrix( 1, 0, 0, 1, -12.5,-2) ">
<use xlink:href="#Layer0_2_MEMBER_2_FILL"/>
</g>

<g transform="matrix( 1, 0, 0, 1, -12.5,-2) ">
<use xlink:href="#Layer0_2_MEMBER_3_FILL"/>
</g>

<g transform="matrix( 1, 0, 0, 1, -12.5,-2) ">
<use xlink:href="#Layer0_2_MEMBER_4_FILL"/>
</g>

<g transform="matrix( 1, 0, 0, 1, -12.5,-2) ">
<use xlink:href="#Layer0_3_MEMBER_0_FILL"/>
</g>

<g transform="matrix( 1, 0, 0, 1, -12.5,-2) ">
<use xlink:href="#Layer0_3_MEMBER_1_FILL"/>
</g>

<g transform="matrix( 1, 0, 0, 1, -12.5,-2) ">
<use xlink:href="#Layer0_3_MEMBER_2_FILL"/>
</g>

<g transform="matrix( 1, 0, 0, 1, -12.5,-2) ">
<use xlink:href="#Layer0_3_MEMBER_3_FILL"/>
</g>

<g transform="matrix( 1, 0, 0, 1, -12.5,-2) ">
<use xlink:href="#Layer0_3_MEMBER_4_FILL"/>
</g>

<g transform="matrix( 1, 0, 0, 1, -12.5,-2) ">
<use xlink:href="#Layer0_3_MEMBER_5_FILL"/>
</g>

<g transform="matrix( 1, 0, 0, 1, -12.5,-2) ">
<use xlink:href="#Layer0_4_FILL"/>
</g>

<g transform="matrix( 1, 0, 0, 1, -12.5,-2) ">
<use xlink:href="#Layer0_5_FILL"/>
</g>

<g transform="matrix( 1, 0, 0, 1, -12.5,-2) ">
<use xlink:href="#Layer0_6_FILL"/>
</g>

<g transform="matrix( 1, 0, 0, 1, -12.5,-2) ">
<use xlink:href="#Layer0_7_MEMBER_0_MEMBER_0_FILL"/>
</g>

<g transform="matrix( 1, 0, 0, 1, -12.5,-2) ">
<use xlink:href="#Layer0_8_MEMBER_0_MEMBER_0_FILL"/>
</g>
</svg>
